%YAML 1.1
%TAG !u! tag:unity3d.com,2011:
--- !u!114 &11400000
MonoBehaviour:
  m_ObjectHideFlags: 0
  m_CorrespondingSourceObject: {fileID: 0}
  m_PrefabInstance: {fileID: 0}
  m_PrefabAsset: {fileID: 0}
  m_GameObject: {fileID: 0}
  m_Enabled: 1
  m_EditorHideFlags: 0
  m_Script: {fileID: 11500000, guid: 95e66c6366d904e98bc83428217d4fd7, type: 3}
  m_Name: CapsuleRotation
  m_EditorClassIdentifier: 
  _data:
    _json: '{"graph":{"variables":{"Kind":"Flow","collection":{"$content":[],"$version":"A"},"$version":"A"},"controlInputDefinitions":[],"controlOutputDefinitions":[],"valueInputDefinitions":[],"valueOutputDefinitions":[],"title":"","summary":null,"pan":{"x":103.0883,"y":123.8737},"zoom":1.0,"elements":[{"coroutine":false,"defaultValues":{},"position":{"x":-277.0,"y":-142.0},"guid":"6d314f9a-b5bf-4077-9a1c-61a1686dc888","$version":"A","$type":"Unity.VisualScripting.Update","$id":"9"},{"chainable":false,"member":{"name":"ClampMagnitude","parameterTypes":["UnityEngine.Vector3","System.Single"],"targetType":"UnityEngine.Vector3","targetTypeName":"UnityEngine.Vector3","$version":"A"},"defaultValues":{"%vector":{"x":0.0,"y":0.0,"z":0.0,"$type":"UnityEngine.Vector3"},"%maxLength":{"$content":1.0,"$type":"System.Single"}},"position":{"x":28.0,"y":-142.0},"guid":"23865bee-2d64-4093-b68e-8d7006418e11","$version":"A","$type":"Unity.VisualScripting.InvokeMember","$id":"11"},{"specifyFallback":false,"kind":"Object","defaultValues":{"name":{"$content":"RotationAxis","$type":"System.String"},"object":null},"position":{"x":-280.0,"y":155.0},"guid":"eba01002-2997-4abc-adfc-6c793098b937","$version":"A","$type":"Unity.VisualScripting.GetVariable","$id":"14"},{"specifyFallback":false,"kind":"Object","defaultValues":{"name":{"$content":"RotationSpeed","$type":"System.String"},"object":null},"position":{"x":0.0,"y":165.0},"guid":"0138b484-9682-471d-ab2b-f11509ac4c2c","$version":"A","$type":"Unity.VisualScripting.GetVariable","$id":"16"},{"member":{"name":"deltaTime","parameterTypes":null,"targetType":"UnityEngine.Time","targetTypeName":"UnityEngine.Time","$version":"A"},"defaultValues":{},"position":{"x":-104.0,"y":351.0},"guid":"bbd37a63-18b0-4811-b17f-aa86626784c3","$version":"A","$type":"Unity.VisualScripting.GetMember","$id":"18"},{"defaultValues":{},"position":{"x":370.0,"y":154.0},"guid":"8fa34003-6e60-47b3-a660-ab02174a130e","$version":"A","$type":"Unity.VisualScripting.GenericMultiply","$id":"21"},{"chainable":false,"member":{"name":"Rotate","parameterTypes":["UnityEngine.Vector3"],"targetType":"UnityEngine.Transform","targetTypeName":"UnityEngine.Transform","$version":"A"},"defaultValues":{"target":null,"%eulers":{"x":0.0,"y":0.0,"z":0.0,"$type":"UnityEngine.Vector3"}},"position":{"x":516.0,"y":-141.0},"guid":"8e6758ef-5e3a-4bb4-b995-ecce0740dc22","$version":"A","$type":"Unity.VisualScripting.InvokeMember","$id":"23"},{"defaultValues":{"b":{"$content":1.0,"$type":"System.Single"}},"position":{"x":199.0,"y":329.0},"guid":"09dfafa7-9c50-4dfb-b155-f40f2a75ae98","$version":"A","$type":"Unity.VisualScripting.ScalarMultiply","$id":"26"},{"sourceUnit":{"$ref":"9"},"sourceKey":"trigger","destinationUnit":{"$ref":"11"},"destinationKey":"enter","guid":"4f9496fb-5705-4e1d-a0ae-3e9d887540c7","$type":"Unity.VisualScripting.ControlConnection"},{"sourceUnit":{"$ref":"11"},"sourceKey":"exit","destinationUnit":{"$ref":"23"},"destinationKey":"enter","guid":"271eb953-c080-433d-ad60-246d8ace1c65","$type":"Unity.VisualScripting.ControlConnection"},{"sourceUnit":{"$ref":"14"},"sourceKey":"value","destinationUnit":{"$ref":"11"},"destinationKey":"%vector","guid":"7bcf08bb-0c4b-475d-a502-0b19fbaf0a30","$type":"Unity.VisualScripting.ValueConnection"},{"sourceUnit":{"$ref":"11"},"sourceKey":"result","destinationUnit":{"$ref":"21"},"destinationKey":"a","guid":"e0025d9b-a612-4823-af9d-1c24b55729c6","$type":"Unity.VisualScripting.ValueConnection"},{"sourceUnit":{"$ref":"21"},"sourceKey":"product","destinationUnit":{"$ref":"23"},"destinationKey":"%eulers","guid":"08c86171-7971-4b6a-a52e-ced953985ce8","$type":"Unity.VisualScripting.ValueConnection"},{"sourceUnit":{"$ref":"16"},"sourceKey":"value","destinationUnit":{"$ref":"26"},"destinationKey":"a","guid":"7f74cbc7-77fe-4f73-b158-f0e523318c64","$type":"Unity.VisualScripting.ValueConnection"},{"sourceUnit":{"$ref":"18"},"sourceKey":"value","destinationUnit":{"$ref":"26"},"destinationKey":"b","guid":"3888ac50-c463-4336-917f-9ec4c936fc78","$type":"Unity.VisualScripting.ValueConnection"},{"sourceUnit":{"$ref":"26"},"sourceKey":"product","destinationUnit":{"$ref":"21"},"destinationKey":"b","guid":"5c3eb707-1b59-4e47-9881-06548c7f176c","$type":"Unity.VisualScripting.ValueConnection"}],"$version":"A"}}'
    _objectReferences: []
